{"failedCount":0,"prefixedPath":"classpath:Apis\/Reqres\/REQ_Get.feature","packageQualifiedName":"Apis.Reqres.REQ_Get","loopIndex":-1,"relativePath":"Apis\/Reqres\/REQ_Get.feature","scenarioResults":[{"sectionIndex":0,"stepResults":[{"result":{"nanos":321900,"startTime":1720596001322,"endTime":1720596001322,"millis":0.3219,"status":"passed"},"step":{"line":5,"prefix":"Given","index":0,"text":"url baseURL"},"stepLog":"12:50:01.321 karate.env system property was: null \n"},{"result":{"nanos":568700,"startTime":1720596001323,"endTime":1720596001324,"millis":0.5687,"status":"passed"},"step":{"line":6,"prefix":"And","index":1,"text":"path '\/users?page=2'"}},{"result":{"nanos":96518600,"startTime":1720596001323,"endTime":1720596001420,"millis":96.5186,"status":"passed"},"step":{"line":7,"prefix":"When","index":2,"text":"method GET"},"stepLog":"12:50:01.325 request:\n1 > GET https:\/\/reqres.in\/api\/users%3Fpage=2\n1 > Host: reqres.in\n1 > Connection: Keep-Alive\n1 > User-Agent: Apache-HttpClient\/4.5.14 (Java\/17.0.6)\n1 > Accept-Encoding: gzip,deflate\n\n\n12:50:01.416 response time in milliseconds: 89\n1 < 200\n1 < Date: Wed, 10 Jul 2024 07:20:01 GMT\n1 < Content-Type: application\/json; charset=utf-8\n1 < Transfer-Encoding: chunked\n1 < Connection: keep-alive\n1 < Report-To: {\"group\":\"heroku-nel\",\"max_age\":3600,\"endpoints\":[{\"url\":\"https:\/\/nel.heroku.com\/reports?ts=1719207468&sid=c4c9725f-1ab0-44d8-820f-430df2718e11&s=kUPwoO6HSf42rsp5RCDEKD5P%2B2%2FYZpp2uQONxpblK6E%3D\"}]}\n1 < Reporting-Endpoints: heroku-nel=https:\/\/nel.heroku.com\/reports?ts=1719207468&sid=c4c9725f-1ab0-44d8-820f-430df2718e11&s=kUPwoO6HSf42rsp5RCDEKD5P%2B2%2FYZpp2uQONxpblK6E%3D\n1 < Nel: {\"report_to\":\"heroku-nel\",\"max_age\":3600,\"success_fraction\":0.005,\"failure_fraction\":0.05,\"response_headers\":[\"Via\"]}\n1 < X-Powered-By: Express\n1 < Access-Control-Allow-Origin: *\n1 < Etag: W\/\"2c1-N6Rqerxquq2kgQhL51EiSg4x0R8\"\n1 < Via: 1.1 vegur\n1 < Cache-Control: max-age=14400\n1 < CF-Cache-Status: HIT\n1 < Age: 1653\n1 < Vary: Accept-Encoding\n1 < Server: cloudflare\n1 < CF-RAY: 8a0ec9f0e9ac3c40-BOM\n{\"page\":1,\"per_page\":6,\"total\":12,\"total_pages\":2,\"data\":[{\"id\":1,\"name\":\"cerulean\",\"year\":2000,\"color\":\"#98B2D1\",\"pantone_value\":\"15-4020\"},{\"id\":2,\"name\":\"fuchsia rose\",\"year\":2001,\"color\":\"#C74375\",\"pantone_value\":\"17-2031\"},{\"id\":3,\"name\":\"true red\",\"year\":2002,\"color\":\"#BF1932\",\"pantone_value\":\"19-1664\"},{\"id\":4,\"name\":\"aqua sky\",\"year\":2003,\"color\":\"#7BC4C4\",\"pantone_value\":\"14-4811\"},{\"id\":5,\"name\":\"tigerlily\",\"year\":2004,\"color\":\"#E2583E\",\"pantone_value\":\"17-1456\"},{\"id\":6,\"name\":\"blue turquoise\",\"year\":2005,\"color\":\"#53B0AE\",\"pantone_value\":\"15-5217\"}],\"support\":{\"url\":\"https:\/\/reqres.in\/#support-heading\",\"text\":\"To keep ReqRes free, contributions towards server costs are appreciated!\"}}\n\n"},{"result":{"nanos":10300,"startTime":1720596001420,"endTime":1720596001420,"millis":0.0103,"status":"passed"},"step":{"line":8,"prefix":"Then","index":3,"text":"status 200"}}],"line":4,"description":"","durationMillis":97.4195,"failed":false,"tags":["execute"],"executorName":"main","name":"Get list of users","startTime":1720596001320,"refId":"[1:4]","endTime":1720596001420,"exampleIndex":-1},{"sectionIndex":1,"stepResults":[{"result":{"nanos":179100,"startTime":1720596001429,"endTime":1720596001429,"millis":0.1791,"status":"passed"},"step":{"line":12,"prefix":"Given","index":0,"text":"url baseURL"},"stepLog":"12:50:01.427 karate.env system property was: null \n"},{"result":{"nanos":219200,"startTime":1720596001429,"endTime":1720596001429,"millis":0.2192,"status":"passed"},"step":{"line":13,"prefix":"And","index":1,"text":"path 'users\/2'"}},{"result":{"nanos":55110500,"startTime":1720596001429,"endTime":1720596001484,"millis":55.1105,"status":"passed"},"step":{"line":14,"prefix":"When","index":2,"text":"method GET"},"stepLog":"12:50:01.431 request:\n1 > GET https:\/\/reqres.in\/api\/users\/2\n1 > Host: reqres.in\n1 > Connection: Keep-Alive\n1 > User-Agent: Apache-HttpClient\/4.5.14 (Java\/17.0.6)\n1 > Accept-Encoding: gzip,deflate\n\n\n12:50:01.483 response time in milliseconds: 50\n1 < 200\n1 < Date: Wed, 10 Jul 2024 07:20:01 GMT\n1 < Content-Type: application\/json; charset=utf-8\n1 < Transfer-Encoding: chunked\n1 < Connection: keep-alive\n1 < Report-To: {\"group\":\"heroku-nel\",\"max_age\":3600,\"endpoints\":[{\"url\":\"https:\/\/nel.heroku.com\/reports?ts=1720585449&sid=c4c9725f-1ab0-44d8-820f-430df2718e11&s=Cn1v5JGINs%2FqXWgKBnLwW4tGZZQwhu1bNaK7YgsnMtw%3D\"}]}\n1 < Reporting-Endpoints: heroku-nel=https:\/\/nel.heroku.com\/reports?ts=1720585449&sid=c4c9725f-1ab0-44d8-820f-430df2718e11&s=Cn1v5JGINs%2FqXWgKBnLwW4tGZZQwhu1bNaK7YgsnMtw%3D\n1 < Nel: {\"report_to\":\"heroku-nel\",\"max_age\":3600,\"success_fraction\":0.005,\"failure_fraction\":0.05,\"response_headers\":[\"Via\"]}\n1 < X-Powered-By: Express\n1 < Access-Control-Allow-Origin: *\n1 < Etag: W\/\"118-pbdwwFo9SKNhD3Lx5iHJyngpq00\"\n1 < Via: 1.1 vegur\n1 < Cache-Control: max-age=14400\n1 < CF-Cache-Status: HIT\n1 < Age: 3302\n1 < Vary: Accept-Encoding\n1 < Server: cloudflare\n1 < CF-RAY: 8a0ec9f14a9847ed-BOM\n{\"data\":{\"id\":2,\"email\":\"janet.weaver@reqres.in\",\"first_name\":\"Janet\",\"last_name\":\"Weaver\",\"avatar\":\"https:\/\/reqres.in\/img\/faces\/2-image.jpg\"},\"support\":{\"url\":\"https:\/\/reqres.in\/#support-heading\",\"text\":\"To keep ReqRes free, contributions towards server costs are appreciated!\"}}\n\n"},{"result":{"nanos":13200,"startTime":1720596001484,"endTime":1720596001484,"millis":0.0132,"status":"passed"},"step":{"line":15,"prefix":"Then","index":3,"text":"status 200"}}],"line":11,"description":"","durationMillis":55.522,"failed":false,"tags":["execute"],"executorName":"main","name":"Get specific user details by id","startTime":1720596001427,"refId":"[2:11]","endTime":1720596001484,"exampleIndex":-1},{"sectionIndex":2,"stepResults":[{"result":{"nanos":399200,"startTime":1720596001495,"endTime":1720596001495,"millis":0.3992,"status":"passed"},"step":{"line":19,"prefix":"Given","index":0,"text":"url baseURL"},"stepLog":"12:50:01.493 karate.env system property was: null \n"},{"result":{"nanos":877600,"startTime":1720596001495,"endTime":1720596001496,"millis":0.8776,"status":"passed"},"step":{"line":20,"prefix":"And","index":1,"text":"path 'users\/23'"}},{"result":{"nanos":78941800,"startTime":1720596001496,"endTime":1720596001575,"millis":78.9418,"status":"passed"},"step":{"line":21,"prefix":"When","index":2,"text":"method GET"},"stepLog":"12:50:01.498 request:\n1 > GET https:\/\/reqres.in\/api\/users\/23\n1 > Host: reqres.in\n1 > Connection: Keep-Alive\n1 > User-Agent: Apache-HttpClient\/4.5.14 (Java\/17.0.6)\n1 > Accept-Encoding: gzip,deflate\n\n\n12:50:01.574 response time in milliseconds: 75\n1 < 404\n1 < Date: Wed, 10 Jul 2024 07:20:01 GMT\n1 < Content-Type: application\/json; charset=utf-8\n1 < Content-Length: 2\n1 < Connection: keep-alive\n1 < Report-To: {\"group\":\"heroku-nel\",\"max_age\":3600,\"endpoints\":[{\"url\":\"https:\/\/nel.heroku.com\/reports?ts=1720595937&sid=c4c9725f-1ab0-44d8-820f-430df2718e11&s=zNclS1IXybQEwFJvmLx9XbK6H0WA9GjHVqSm1fAiKyM%3D\"}]}\n1 < Reporting-Endpoints: heroku-nel=https:\/\/nel.heroku.com\/reports?ts=1720595937&sid=c4c9725f-1ab0-44d8-820f-430df2718e11&s=zNclS1IXybQEwFJvmLx9XbK6H0WA9GjHVqSm1fAiKyM%3D\n1 < Nel: {\"report_to\":\"heroku-nel\",\"max_age\":3600,\"success_fraction\":0.005,\"failure_fraction\":0.05,\"response_headers\":[\"Via\"]}\n1 < X-Powered-By: Express\n1 < Access-Control-Allow-Origin: *\n1 < Etag: W\/\"2-vyGp6PvFo4RvsFtPoIWeCReyIC8\"\n1 < Via: 1.1 vegur\n1 < Cache-Control: max-age=14400\n1 < CF-Cache-Status: HIT\n1 < Age: 64\n1 < Vary: Accept-Encoding\n1 < Server: cloudflare\n1 < CF-RAY: 8a0ec9f1de4c3b5b-BOM\n{}\n\n"},{"result":{"nanos":16200,"startTime":1720596001575,"endTime":1720596001575,"millis":0.0162,"status":"passed"},"step":{"line":22,"prefix":"Then","index":3,"text":"status 404"}}],"line":18,"description":"","durationMillis":80.2348,"failed":false,"tags":["execute"],"executorName":"main","name":"Get SINGLE USER NOT FOUND","startTime":1720596001492,"refId":"[3:18]","endTime":1720596001575,"exampleIndex":-1},{"sectionIndex":3,"stepResults":[{"result":{"nanos":154000,"startTime":1720596001583,"endTime":1720596001583,"millis":0.154,"status":"passed"},"step":{"line":26,"prefix":"Given","index":0,"text":"url baseURL"},"stepLog":"12:50:01.582 karate.env system property was: null \n"},{"result":{"nanos":459500,"startTime":1720596001583,"endTime":1720596001583,"millis":0.4595,"status":"passed"},"step":{"line":27,"prefix":"And","index":1,"text":"path '\/unknown'"}},{"result":{"nanos":54554800,"startTime":1720596001584,"endTime":1720596001639,"millis":54.5548,"status":"passed"},"step":{"line":28,"prefix":"When","index":2,"text":"method GET"},"stepLog":"12:50:01.585 request:\n1 > GET https:\/\/reqres.in\/api\/unknown\n1 > Host: reqres.in\n1 > Connection: Keep-Alive\n1 > User-Agent: Apache-HttpClient\/4.5.14 (Java\/17.0.6)\n1 > Accept-Encoding: gzip,deflate\n\n\n12:50:01.636 response time in milliseconds: 50\n1 < 200\n1 < Date: Wed, 10 Jul 2024 07:20:01 GMT\n1 < Content-Type: application\/json; charset=utf-8\n1 < Transfer-Encoding: chunked\n1 < Connection: keep-alive\n1 < Report-To: {\"group\":\"heroku-nel\",\"max_age\":3600,\"endpoints\":[{\"url\":\"https:\/\/nel.heroku.com\/reports?ts=1720106040&sid=c4c9725f-1ab0-44d8-820f-430df2718e11&s=smtEvM%2FYDCVJ8w%2Fbtm0%2FdUcEVftU%2BFUP017pA%2B%2FjKAk%3D\"}]}\n1 < Reporting-Endpoints: heroku-nel=https:\/\/nel.heroku.com\/reports?ts=1720106040&sid=c4c9725f-1ab0-44d8-820f-430df2718e11&s=smtEvM%2FYDCVJ8w%2Fbtm0%2FdUcEVftU%2BFUP017pA%2B%2FjKAk%3D\n1 < Nel: {\"report_to\":\"heroku-nel\",\"max_age\":3600,\"success_fraction\":0.005,\"failure_fraction\":0.05,\"response_headers\":[\"Via\"]}\n1 < X-Powered-By: Express\n1 < Access-Control-Allow-Origin: *\n1 < Etag: W\/\"2c1-N6Rqerxquq2kgQhL51EiSg4x0R8\"\n1 < Via: 1.1 vegur\n1 < Cache-Control: max-age=14400\n1 < CF-Cache-Status: HIT\n1 < Age: 426\n1 < Vary: Accept-Encoding\n1 < Server: cloudflare\n1 < CF-RAY: 8a0ec9f23bea3cc4-BOM\n{\"page\":1,\"per_page\":6,\"total\":12,\"total_pages\":2,\"data\":[{\"id\":1,\"name\":\"cerulean\",\"year\":2000,\"color\":\"#98B2D1\",\"pantone_value\":\"15-4020\"},{\"id\":2,\"name\":\"fuchsia rose\",\"year\":2001,\"color\":\"#C74375\",\"pantone_value\":\"17-2031\"},{\"id\":3,\"name\":\"true red\",\"year\":2002,\"color\":\"#BF1932\",\"pantone_value\":\"19-1664\"},{\"id\":4,\"name\":\"aqua sky\",\"year\":2003,\"color\":\"#7BC4C4\",\"pantone_value\":\"14-4811\"},{\"id\":5,\"name\":\"tigerlily\",\"year\":2004,\"color\":\"#E2583E\",\"pantone_value\":\"17-1456\"},{\"id\":6,\"name\":\"blue turquoise\",\"year\":2005,\"color\":\"#53B0AE\",\"pantone_value\":\"15-5217\"}],\"support\":{\"url\":\"https:\/\/reqres.in\/#support-heading\",\"text\":\"To keep ReqRes free, contributions towards server costs are appreciated!\"}}\n\n"},{"result":{"nanos":12600,"startTime":1720596001639,"endTime":1720596001639,"millis":0.0126,"status":"passed"},"step":{"line":29,"prefix":"Then","index":3,"text":"status 200"}}],"line":25,"description":"","durationMillis":55.1809,"failed":false,"tags":["execute"],"executorName":"main","name":"Get LIST RESOURCE","startTime":1720596001582,"refId":"[4:25]","endTime":1720596001639,"exampleIndex":-1},{"sectionIndex":4,"stepResults":[{"result":{"nanos":135900,"startTime":1720596001646,"endTime":1720596001646,"millis":0.1359,"status":"passed"},"step":{"line":33,"prefix":"Given","index":0,"text":"url baseURL"},"stepLog":"12:50:01.645 karate.env system property was: null \n"},{"result":{"nanos":481300,"startTime":1720596001646,"endTime":1720596001646,"millis":0.4813,"status":"passed"},"step":{"line":34,"prefix":"And","index":1,"text":"path '\/unknown\/2'"}},{"result":{"nanos":70039000,"startTime":1720596001646,"endTime":1720596001716,"millis":70.039,"status":"passed"},"step":{"line":35,"prefix":"When","index":2,"text":"method GET"},"stepLog":"12:50:01.648 request:\n1 > GET https:\/\/reqres.in\/api\/unknown\/2\n1 > Host: reqres.in\n1 > Connection: Keep-Alive\n1 > User-Agent: Apache-HttpClient\/4.5.14 (Java\/17.0.6)\n1 > Accept-Encoding: gzip,deflate\n\n\n12:50:01.716 response time in milliseconds: 67\n1 < 200\n1 < Date: Wed, 10 Jul 2024 07:20:01 GMT\n1 < Content-Type: application\/json; charset=utf-8\n1 < Transfer-Encoding: chunked\n1 < Connection: keep-alive\n1 < Report-To: {\"group\":\"heroku-nel\",\"max_age\":3600,\"endpoints\":[{\"url\":\"https:\/\/nel.heroku.com\/reports?ts=1720330977&sid=c4c9725f-1ab0-44d8-820f-430df2718e11&s=Din2ddNWiFHMlhMw50vcJzUZhCK5whql9r2ta1L%2Bf7A%3D\"}]}\n1 < Reporting-Endpoints: heroku-nel=https:\/\/nel.heroku.com\/reports?ts=1720330977&sid=c4c9725f-1ab0-44d8-820f-430df2718e11&s=Din2ddNWiFHMlhMw50vcJzUZhCK5whql9r2ta1L%2Bf7A%3D\n1 < Nel: {\"report_to\":\"heroku-nel\",\"max_age\":3600,\"success_fraction\":0.005,\"failure_fraction\":0.05,\"response_headers\":[\"Via\"]}\n1 < X-Powered-By: Express\n1 < Access-Control-Allow-Origin: *\n1 < Etag: W\/\"e8-ov4wWh4\/OY1IMQMqWgskYtOFnVs\"\n1 < Via: 1.1 vegur\n1 < Cache-Control: max-age=14400\n1 < CF-Cache-Status: HIT\n1 < Age: 5311\n1 < Vary: Accept-Encoding\n1 < Server: cloudflare\n1 < CF-RAY: 8a0ec9f2bfa93b13-BOM\n{\"data\":{\"id\":2,\"name\":\"fuchsia rose\",\"year\":2001,\"color\":\"#C74375\",\"pantone_value\":\"17-2031\"},\"support\":{\"url\":\"https:\/\/reqres.in\/#support-heading\",\"text\":\"To keep ReqRes free, contributions towards server costs are appreciated!\"}}\n\n"},{"result":{"nanos":9900,"startTime":1720596001717,"endTime":1720596001717,"millis":0.0099,"status":"passed"},"step":{"line":36,"prefix":"Then","index":3,"text":"status 200"}}],"line":32,"description":"","durationMillis":70.6661,"failed":false,"tags":["execute"],"executorName":"main","name":"Get SINGLE RESOURCE","startTime":1720596001644,"refId":"[5:32]","endTime":1720596001717,"exampleIndex":-1}],"callDepth":0,"name":"Get users List from ReqRes","description":"","resultDate":"2024-07-10 12:50:01 PM","durationMillis":359.0233,"passedCount":5}